<?xml version="1.0" encoding="utf-8"?>
<!-- Generator: Adobe Illustrator 18.0.0, SVG Export Plug-In . SVG Version: 6.00 Build 0)  -->
<!DOCTYPE svg PUBLIC "-//W3C//DTD SVG 1.1//EN" "http://www.w3.org/Graphics/SVG/1.1/DTD/svg11.dtd">
<svg version="1.1" id="Layer_1" xmlns="http://www.w3.org/2000/svg" xmlns:xlink="http://www.w3.org/1999/xlink" x="0px" y="0px"
	 viewBox="0 0 653 328" enable-background="new 0 0 653 328" xml:space="preserve">
<g>
	<rect x="2.6" y="1.6" fill="#478940" width="47.6" height="325.9"/>
	<rect x="48.8" y="1.6" fill="#3D7D3C" width="47.6" height="325.9"/>
	<rect x="95.1" y="1.6" fill="#478940" width="47.6" height="325.9"/>
	<rect x="141.3" y="1.6" fill="#3D7D3C" width="47.6" height="325.9"/>
	<rect x="187.6" y="1.6" fill="#478940" width="47.6" height="325.9"/>
	<rect x="233.9" y="1.6" fill="#3D7D3C" width="47.6" height="325.9"/>
	<rect x="280.1" y="1.6" fill="#478940" width="47.6" height="325.9"/>
	<rect x="326.4" y="1.6" fill="#3D7D3C" width="47.6" height="325.9"/>
	<rect x="372.6" y="1.6" fill="#478940" width="47.6" height="325.9"/>
	<rect x="418.9" y="1.6" fill="#3D7D3C" width="47.6" height="325.9"/>
	<rect x="465.1" y="1.6" fill="#478940" width="47.6" height="325.9"/>
	<rect x="511.4" y="1.6" fill="#3D7D3C" width="47.6" height="325.9"/>
	<rect x="557.6" y="1.6" fill="#478940" width="47.6" height="325.9"/>
	<rect x="603.9" y="1.6" fill="#3D7D3C" width="47.6" height="325.9"/>
</g>
<g>
	<path fill="#FFFFFF" d="M0,0v66.6v52.6v90.1v52.6V328h653v-66.1v-52.6v-90.1V66.6V0H0z M325,161.9c-0.7,0.4-1.2,1.2-1.2,2.1
		c0,0.9,0.5,1.6,1.2,2.1v40.1c-22.6-0.8-40.7-19.4-40.7-42.2c0-22.8,18.1-41.4,40.7-42.2V161.9z M328,166.1c0.7-0.4,1.2-1.2,1.2-2.1
		c0-0.9-0.5-1.6-1.2-2.1v-40.1c22.6,0.8,40.7,19.4,40.7,42.2c0,22.8-18.1,41.4-40.7,42.2V166.1z M3,122.2h31v84.1H3V122.2z
		 M37,209.3v-90.1H3V69.6h99.1v56.8v75.1v57.3H3v-49.6H37z M105.1,131.7c10.8,7,17.8,17.1,19.3,27.9c1.4,10.6-2.3,21.1-10.7,29.6
		c-2.5,2.6-5.4,5-8.6,7V131.7z M3,325v-63.1h102.1v-62.1c4.1-2.4,7.7-5.3,10.8-8.4c9-9.2,13.1-20.6,11.5-32.1
		c-1.7-12.2-9.8-23.5-22.3-31V66.6H3V3h322v115.8c-24.2,0.8-43.7,20.8-43.7,45.2c0,24.4,19.5,44.4,43.7,45.2V325H3z M650,206.3h-31
		v-84.1h31V206.3z M616,119.2v90.1h34v49.6h-99.1v-57.3v-75.1V69.6H650v49.6H616z M547.9,196.3c-3.2-2.1-6.1-4.4-8.6-7
		c-8.3-8.5-12.1-19.1-10.7-29.6c1.5-10.8,8.5-20.9,19.3-27.9V196.3z M547.9,66.6v61.6c-12.5,7.5-20.6,18.8-22.3,31
		c-1.6,11.5,2.5,22.9,11.5,32.1c3.1,3.2,6.7,6,10.8,8.4v62.1H650V325H328V209.2c24.2-0.8,43.7-20.8,43.7-45.2
		c0-24.4-19.5-44.4-43.7-45.2V3h322v63.6H547.9z"/>
	<path fill="#FFFFFF" d="M69.6,166.5c1.5,0,2.7-1.1,2.7-2.5c0-1.4-1.2-2.5-2.7-2.5s-2.7,1.1-2.7,2.5
		C66.9,165.4,68.1,166.5,69.6,166.5z M69.6,163.5c0.1,0,0.3,0.2,0.3,0.5c0,0.3-0.2,0.5-0.2,0.5c-0.1,0-0.3-0.2-0.3-0.5
		C69.3,163.7,69.5,163.5,69.6,163.5z"/>
	<path fill="#FFFFFF" d="M583.4,161.5c-1.5,0-2.7,1.1-2.7,2.5c0,1.4,1.2,2.5,2.7,2.5s2.7-1.1,2.7-2.5
		C586.2,162.6,584.9,161.5,583.4,161.5z M583.4,164.5c-0.1,0-0.3-0.2-0.3-0.5c0-0.3,0.2-0.5,0.3-0.5c0.1,0,0.3,0.2,0.3,0.5
		C583.7,164.3,583.5,164.5,583.4,164.5z"/>
</g>
</svg>
