<?xml version="1.0" encoding="utf-8"?>
<!-- Generator: Adobe Illustrator 18.0.0, SVG Export Plug-In . SVG Version: 6.00 Build 0)  -->
<!DOCTYPE svg PUBLIC "-//W3C//DTD SVG 1.1//EN" "http://www.w3.org/Graphics/SVG/1.1/DTD/svg11.dtd">
<svg version="1.1" id="Layer_1" xmlns="http://www.w3.org/2000/svg" xmlns:xlink="http://www.w3.org/1999/xlink" x="0px" y="0px"
	 viewBox="0 0 32 32" enable-background="new 0 0 32 32" xml:space="preserve">
<g>
	<g>
		<path fill="#BBBDBF" d="M16,0C7.2,0,0,7.2,0,16s7.2,16,16,16s16-7.2,16-16S24.8,0,16,0z M16,30.4C8.1,30.4,1.6,23.9,1.6,16
			C1.6,8.1,8.1,1.6,16,1.6c7.9,0,14.4,6.5,14.4,14.4C30.4,23.9,23.9,30.4,16,30.4z"/>
	</g>
	<path fill="#A6A8AB" d="M21.9,14.8c-0.1-0.4-0.2-0.8-0.4-1.2c-0.3-0.7-0.7-1.3-1.2-1.8c-0.1-0.1-0.1-0.1-0.2-0.2
		c-0.1-0.1-0.2-0.2-0.4-0.3c-0.1-0.1-0.2-0.2-0.4-0.3C19.2,11,19.1,11,19,10.9c-0.1,0-0.1-0.1-0.2-0.1c-0.2-0.1-0.3-0.2-0.5-0.2
		c-0.1,0-0.2-0.1-0.3-0.1c-0.2-0.1-0.4-0.1-0.6-0.2c-0.1,0-0.2,0-0.3-0.1c-0.1,0-0.3,0-0.4-0.1c0,0,0,0,0,0c-0.1,0-0.1,0-0.2,0
		c0,0-0.1,0-0.2,0c-0.1,0-0.2,0-0.3,0h0c-3.3,0-5.9,2.7-5.9,6c0,2.7,1.8,5,4.3,5.7c0.5,0.1,1,0.2,1.6,0.2h0c1.1,0,2.2-0.3,3.1-0.9
		c0.4-0.2,0.7-0.5,1-0.8c1.1-1.1,1.8-2.6,1.8-4.3C22,15.7,22,15.2,21.9,14.8z M16.3,12.2l1.9-1.1c0,0,0,0,0,0
		c0.6,0.3,1.2,0.6,1.6,1.1h0c0.1,0.1,0.1,0.1,0.2,0.2c0,0,0,0,0,0l-0.4,2.1h0L18,15.1l-1.7-1.3V12.2z M12.2,12.2
		c0.5-0.5,1-0.9,1.6-1.1c0,0,0,0,0,0l0.8,0.5l1.1,0.6v1.7l-1.1,0.8L14,15.1l-1.6-0.5L12,12.5c0,0,0,0,0,0
		C12.1,12.4,12.1,12.3,12.2,12.2z M11.3,18.7C11.3,18.7,11.3,18.6,11.3,18.7C11.3,18.6,11.3,18.7,11.3,18.7
		c-0.1-0.2-0.2-0.3-0.3-0.5c-0.2-0.5-0.3-1-0.4-1.6c0,0,0,0,0,0l1.6-1.5l1.6,0.5l0.6,1.7l0.1,0.3l-0.1,0.1L13.5,19L11.3,18.7z
		 M17.3,21.3C17.3,21.3,17.3,21.3,17.3,21.3c-0.4,0.1-0.9,0.2-1.3,0.2c0,0,0,0,0,0c-0.4,0-0.8-0.1-1.3-0.2c0,0,0,0,0,0l-0.3-0.8
		l-0.5-1.2l0.5-0.7l0.5-0.6h2.4l1,1.3L17.3,21.3z M21.4,16.9c0,0.1,0,0.2-0.1,0.3c0,0.1,0,0.1,0,0.2c-0.1,0.3-0.2,0.5-0.3,0.8
		c-0.1,0.2-0.1,0.3-0.2,0.5h0c0,0,0,0,0,0c0,0,0,0,0,0L18.6,19l-1-1.3l0.7-2h0l1.6-0.5l1.6,1.5c0,0,0,0,0,0h0
		C21.4,16.7,21.4,16.8,21.4,16.9z M21.9,14.8c-0.1-0.4-0.2-0.8-0.4-1.2c-0.3-0.7-0.7-1.3-1.2-1.8c-0.1-0.1-0.1-0.1-0.2-0.2
		c-0.1-0.1-0.2-0.2-0.4-0.3c-0.1-0.1-0.2-0.2-0.4-0.3C19.2,11,19.1,11,19,10.9c-0.1,0-0.1-0.1-0.2-0.1c-0.2-0.1-0.3-0.2-0.5-0.2
		c-0.1,0-0.2-0.1-0.3-0.1c-0.2-0.1-0.4-0.1-0.6-0.2c-0.1,0-0.2,0-0.3-0.1c-0.1,0-0.3,0-0.4-0.1c0,0,0,0,0,0c-0.1,0-0.1,0-0.2,0
		c0,0-0.1,0-0.2,0c-0.1,0-0.2,0-0.3,0h0c-3.3,0-5.9,2.7-5.9,6c0,2.7,1.8,5,4.3,5.7c0.5,0.1,1,0.2,1.6,0.2h0c1.1,0,2.2-0.3,3.1-0.9
		c0.4-0.2,0.7-0.5,1-0.8c1.1-1.1,1.8-2.6,1.8-4.3C22,15.7,22,15.2,21.9,14.8z M16.3,12.2l1.9-1.1c0,0,0,0,0,0
		c0.6,0.3,1.2,0.6,1.6,1.1h0c0.1,0.1,0.1,0.1,0.2,0.2c0,0,0,0,0,0l-0.4,2.1h0L18,15.1l-1.7-1.3V12.2z M12.2,12.2
		c0.5-0.5,1-0.9,1.6-1.1c0,0,0,0,0,0l0.8,0.5l1.1,0.6v1.7l-1.1,0.8L14,15.1l-1.6-0.5L12,12.5c0,0,0,0,0,0
		C12.1,12.4,12.1,12.3,12.2,12.2z M11.3,18.7C11.3,18.7,11.3,18.6,11.3,18.7C11.3,18.6,11.3,18.7,11.3,18.7
		c-0.1-0.2-0.2-0.3-0.3-0.5c-0.2-0.5-0.3-1-0.4-1.6c0,0,0,0,0,0l1.6-1.5l1.6,0.5l0.6,1.7l0.1,0.3l-0.1,0.1L13.5,19L11.3,18.7z
		 M17.3,21.3C17.3,21.3,17.3,21.3,17.3,21.3c-0.4,0.1-0.9,0.2-1.3,0.2c0,0,0,0,0,0c-0.4,0-0.8-0.1-1.3-0.2c0,0,0,0,0,0l-0.3-0.8
		l-0.5-1.2l0.5-0.7l0.5-0.6h2.4l1,1.3L17.3,21.3z M21.4,16.9c0,0.1,0,0.2-0.1,0.3c0,0.1,0,0.1,0,0.2c-0.1,0.3-0.2,0.5-0.3,0.8
		c-0.1,0.2-0.1,0.3-0.2,0.5h0c0,0,0,0,0,0c0,0,0,0,0,0L18.6,19l-1-1.3l0.7-2h0l1.6-0.5l1.6,1.5c0,0,0,0,0,0h0
		C21.4,16.7,21.4,16.8,21.4,16.9z M21.9,14.8c-0.1-0.4-0.2-0.8-0.4-1.2c-0.3-0.7-0.7-1.3-1.2-1.8c-0.1-0.1-0.1-0.1-0.2-0.2
		c-0.1-0.1-0.2-0.2-0.4-0.3c-0.1-0.1-0.2-0.2-0.4-0.3C19.2,11,19.1,11,19,10.9c-0.1,0-0.1-0.1-0.2-0.1c-0.2-0.1-0.3-0.2-0.5-0.2
		c-0.1,0-0.2-0.1-0.3-0.1c-0.2-0.1-0.4-0.1-0.6-0.2c-0.1,0-0.2,0-0.3-0.1c-0.1,0-0.3,0-0.4-0.1c0,0,0,0,0,0c-0.1,0-0.1,0-0.2,0
		c0,0-0.1,0-0.2,0c-0.1,0-0.2,0-0.3,0h0c-3.3,0-5.9,2.7-5.9,6c0,2.7,1.8,5,4.3,5.7c0.5,0.1,1,0.2,1.6,0.2h0c1.1,0,2.2-0.3,3.1-0.9
		c0.4-0.2,0.7-0.5,1-0.8c1.1-1.1,1.8-2.6,1.8-4.3C22,15.7,22,15.2,21.9,14.8z M16.3,12.2l1.9-1.1c0,0,0,0,0,0
		c0.6,0.3,1.2,0.6,1.6,1.1h0c0.1,0.1,0.1,0.1,0.2,0.2c0,0,0,0,0,0l-0.4,2.1h0L18,15.1l-1.7-1.3V12.2z M12.2,12.2
		c0.5-0.5,1-0.9,1.6-1.1c0,0,0,0,0,0l0.8,0.5l1.1,0.6v1.7l-1.1,0.8L14,15.1l-1.6-0.5L12,12.5c0,0,0,0,0,0
		C12.1,12.4,12.1,12.3,12.2,12.2z M11.3,18.7C11.3,18.7,11.3,18.6,11.3,18.7C11.3,18.6,11.3,18.7,11.3,18.7
		c-0.1-0.2-0.2-0.3-0.3-0.5c-0.2-0.5-0.3-1-0.4-1.6c0,0,0,0,0,0l1.6-1.5l1.6,0.5l0.6,1.7l0.1,0.3l-0.1,0.1L13.5,19L11.3,18.7z
		 M17.3,21.3C17.3,21.3,17.3,21.3,17.3,21.3c-0.4,0.1-0.9,0.2-1.3,0.2c0,0,0,0,0,0c-0.4,0-0.8-0.1-1.3-0.2c0,0,0,0,0,0l-0.3-0.8
		l-0.5-1.2l0.5-0.7l0.5-0.6h2.4l1,1.3L17.3,21.3z M21.4,16.9c0,0.1,0,0.2-0.1,0.3c0,0.1,0,0.1,0,0.2c-0.1,0.3-0.2,0.5-0.3,0.8
		c-0.1,0.2-0.1,0.3-0.2,0.5h0c0,0,0,0,0,0c0,0,0,0,0,0L18.6,19l-1-1.3l0.7-2h0l1.6-0.5l1.6,1.5c0,0,0,0,0,0h0
		C21.4,16.7,21.4,16.8,21.4,16.9z M21.9,14.8c-0.1-0.4-0.2-0.8-0.4-1.2c-0.3-0.7-0.7-1.3-1.2-1.8c-0.1-0.1-0.1-0.1-0.2-0.2
		c-0.1-0.1-0.2-0.2-0.4-0.3c-0.1-0.1-0.2-0.2-0.4-0.3C19.2,11,19.1,11,19,10.9c-0.1,0-0.1-0.1-0.2-0.1c-0.2-0.1-0.3-0.2-0.5-0.2
		c-0.1,0-0.2-0.1-0.3-0.1c-0.2-0.1-0.4-0.1-0.6-0.2c-0.1,0-0.2,0-0.3-0.1c-0.1,0-0.3,0-0.4-0.1c0,0,0,0,0,0c-0.1,0-0.1,0-0.2,0
		c0,0-0.1,0-0.2,0c-0.1,0-0.2,0-0.3,0h0c-3.3,0-5.9,2.7-5.9,6c0,2.7,1.8,5,4.3,5.7c0.5,0.1,1,0.2,1.6,0.2h0c1.1,0,2.2-0.3,3.1-0.9
		c0.4-0.2,0.7-0.5,1-0.8c1.1-1.1,1.8-2.6,1.8-4.3C22,15.7,22,15.2,21.9,14.8z M16.3,12.2l1.9-1.1c0,0,0,0,0,0
		c0.6,0.3,1.2,0.6,1.6,1.1h0c0.1,0.1,0.1,0.1,0.2,0.2c0,0,0,0,0,0l-0.4,2.1h0L18,15.1l-1.7-1.3V12.2z M12.2,12.2
		c0.5-0.5,1-0.9,1.6-1.1c0,0,0,0,0,0l0.8,0.5l1.1,0.6v1.7l-1.1,0.8L14,15.1l-1.6-0.5L12,12.5c0,0,0,0,0,0
		C12.1,12.4,12.1,12.3,12.2,12.2z M11.3,18.7C11.3,18.7,11.3,18.6,11.3,18.7C11.3,18.6,11.3,18.7,11.3,18.7
		c-0.1-0.2-0.2-0.3-0.3-0.5c-0.2-0.5-0.3-1-0.4-1.6c0,0,0,0,0,0l1.6-1.5l1.6,0.5l0.6,1.7l0.1,0.3l-0.1,0.1L13.5,19L11.3,18.7z
		 M17.3,21.3C17.3,21.3,17.3,21.3,17.3,21.3c-0.4,0.1-0.9,0.2-1.3,0.2c0,0,0,0,0,0c-0.4,0-0.8-0.1-1.3-0.2c0,0,0,0,0,0l-0.3-0.8
		l-0.5-1.2l0.5-0.7l0.5-0.6h2.4l1,1.3L17.3,21.3z M21.4,16.9c0,0.1,0,0.2-0.1,0.3c0,0.1,0,0.1,0,0.2c-0.1,0.3-0.2,0.5-0.3,0.8
		c-0.1,0.2-0.1,0.3-0.2,0.5h0c0,0,0,0,0,0c0,0,0,0,0,0L18.6,19l-1-1.3l0.7-2h0l1.6-0.5l1.6,1.5c0,0,0,0,0,0h0
		C21.4,16.7,21.4,16.8,21.4,16.9z M21.9,14.8c-0.1-0.4-0.2-0.8-0.4-1.2c-0.3-0.7-0.7-1.3-1.2-1.8c-0.1-0.1-0.1-0.1-0.2-0.2
		c-0.1-0.1-0.2-0.2-0.4-0.3c-0.1-0.1-0.2-0.2-0.4-0.3C19.2,11,19.1,11,19,10.9c-0.1,0-0.1-0.1-0.2-0.1c-0.2-0.1-0.3-0.2-0.5-0.2
		c-0.1,0-0.2-0.1-0.3-0.1c-0.2-0.1-0.4-0.1-0.6-0.2c-0.1,0-0.2,0-0.3-0.1c-0.1,0-0.3,0-0.4-0.1c0,0,0,0,0,0c-0.1,0-0.1,0-0.2,0
		c0,0-0.1,0-0.2,0c-0.1,0-0.2,0-0.3,0h0c-3.3,0-5.9,2.7-5.9,6c0,2.7,1.8,5,4.3,5.7c0.5,0.1,1,0.2,1.6,0.2h0c1.1,0,2.2-0.3,3.1-0.9
		c0.4-0.2,0.7-0.5,1-0.8c1.1-1.1,1.8-2.6,1.8-4.3C22,15.7,22,15.2,21.9,14.8z M16.3,12.2l1.9-1.1c0,0,0,0,0,0
		c0.6,0.3,1.2,0.6,1.6,1.1h0c0.1,0.1,0.1,0.1,0.2,0.2c0,0,0,0,0,0l-0.4,2.1h0L18,15.1l-1.7-1.3V12.2z M12.2,12.2
		c0.5-0.5,1-0.9,1.6-1.1c0,0,0,0,0,0l0.8,0.5l1.1,0.6v1.7l-1.1,0.8L14,15.1l-1.6-0.5L12,12.5c0,0,0,0,0,0
		C12.1,12.4,12.1,12.3,12.2,12.2z M11.3,18.7C11.3,18.7,11.3,18.6,11.3,18.7C11.3,18.6,11.3,18.7,11.3,18.7
		c-0.1-0.2-0.2-0.3-0.3-0.5c-0.2-0.5-0.3-1-0.4-1.6c0,0,0,0,0,0l1.6-1.5l1.6,0.5l0.6,1.7l0.1,0.3l-0.1,0.1L13.5,19L11.3,18.7z
		 M17.3,21.3C17.3,21.3,17.3,21.3,17.3,21.3c-0.4,0.1-0.9,0.2-1.3,0.2c0,0,0,0,0,0c-0.4,0-0.8-0.1-1.3-0.2c0,0,0,0,0,0l-0.3-0.8
		l-0.5-1.2l0.5-0.7l0.5-0.6h2.4l1,1.3L17.3,21.3z M21.4,16.9c0,0.1,0,0.2-0.1,0.3c0,0.1,0,0.1,0,0.2c-0.1,0.3-0.2,0.5-0.3,0.8
		c-0.1,0.2-0.1,0.3-0.2,0.5h0c0,0,0,0,0,0c0,0,0,0,0,0L18.6,19l-1-1.3l0.7-2h0l1.6-0.5l1.6,1.5c0,0,0,0,0,0h0
		C21.4,16.7,21.4,16.8,21.4,16.9z M21.9,14.8c-0.1-0.4-0.2-0.8-0.4-1.2c-0.3-0.7-0.7-1.3-1.2-1.8c-0.1-0.1-0.1-0.1-0.2-0.2
		c-0.1-0.1-0.2-0.2-0.4-0.3c-0.1-0.1-0.2-0.2-0.4-0.3C19.2,11,19.1,11,19,10.9c-0.1,0-0.1-0.1-0.2-0.1c-0.2-0.1-0.3-0.2-0.5-0.2
		c-0.1,0-0.2-0.1-0.3-0.1c-0.2-0.1-0.4-0.1-0.6-0.2c-0.1,0-0.2,0-0.3-0.1c-0.1,0-0.3,0-0.4-0.1c0,0,0,0,0,0c-0.1,0-0.1,0-0.2,0
		c0,0-0.1,0-0.2,0c-0.1,0-0.2,0-0.3,0h0c-3.3,0-5.9,2.7-5.9,6c0,2.7,1.8,5,4.3,5.7c0.5,0.1,1,0.2,1.6,0.2h0c1.1,0,2.2-0.3,3.1-0.9
		c0.4-0.2,0.7-0.5,1-0.8c1.1-1.1,1.8-2.6,1.8-4.3C22,15.7,22,15.2,21.9,14.8z M16.3,12.2l1.9-1.1c0,0,0,0,0,0
		c0.6,0.3,1.2,0.6,1.6,1.1h0c0.1,0.1,0.1,0.1,0.2,0.2c0,0,0,0,0,0l-0.4,2.1h0L18,15.1l-1.7-1.3V12.2z M12.2,12.2
		c0.5-0.5,1-0.9,1.6-1.1c0,0,0,0,0,0l0.8,0.5l1.1,0.6v1.7l-1.1,0.8L14,15.1l-1.6-0.5L12,12.5c0,0,0,0,0,0
		C12.1,12.4,12.1,12.3,12.2,12.2z M11.3,18.7C11.3,18.7,11.3,18.6,11.3,18.7C11.3,18.6,11.3,18.7,11.3,18.7
		c-0.1-0.2-0.2-0.3-0.3-0.5c-0.2-0.5-0.3-1-0.4-1.6c0,0,0,0,0,0l1.6-1.5l1.6,0.5l0.6,1.7l0.1,0.3l-0.1,0.1L13.5,19L11.3,18.7z
		 M17.3,21.3C17.3,21.3,17.3,21.3,17.3,21.3c-0.4,0.1-0.9,0.2-1.3,0.2c0,0,0,0,0,0c-0.4,0-0.8-0.1-1.3-0.2c0,0,0,0,0,0l-0.3-0.8
		l-0.5-1.2l0.5-0.7l0.5-0.6h2.4l1,1.3L17.3,21.3z M21.4,16.9c0,0.1,0,0.2-0.1,0.3c0,0.1,0,0.1,0,0.2c-0.1,0.3-0.2,0.5-0.3,0.8
		c-0.1,0.2-0.1,0.3-0.2,0.5h0c0,0,0,0,0,0c0,0,0,0,0,0L18.6,19l-1-1.3l0.7-2h0l1.6-0.5l1.6,1.5c0,0,0,0,0,0h0
		C21.4,16.7,21.4,16.8,21.4,16.9z M21.9,14.8c-0.1-0.4-0.2-0.8-0.4-1.2c-0.3-0.7-0.7-1.3-1.2-1.8c-0.1-0.1-0.1-0.1-0.2-0.2
		c-0.1-0.1-0.2-0.2-0.4-0.3c-0.1-0.1-0.2-0.2-0.4-0.3C19.2,11,19.1,11,19,10.9c-0.1,0-0.1-0.1-0.2-0.1c-0.2-0.1-0.3-0.2-0.5-0.2
		c-0.1,0-0.2-0.1-0.3-0.1c-0.2-0.1-0.4-0.1-0.6-0.2c-0.1,0-0.2,0-0.3-0.1c-0.1,0-0.3,0-0.4-0.1c0,0,0,0,0,0c-0.1,0-0.1,0-0.2,0
		c0,0-0.1,0-0.2,0c-0.1,0-0.2,0-0.3,0h0c-3.3,0-5.9,2.7-5.9,6c0,2.7,1.8,5,4.3,5.7c0.5,0.1,1,0.2,1.6,0.2h0c1.1,0,2.2-0.3,3.1-0.9
		c0.4-0.2,0.7-0.5,1-0.8c1.1-1.1,1.8-2.6,1.8-4.3C22,15.7,22,15.2,21.9,14.8z M16.3,12.2l1.9-1.1c0,0,0,0,0,0
		c0.6,0.3,1.2,0.6,1.6,1.1h0c0.1,0.1,0.1,0.1,0.2,0.2c0,0,0,0,0,0l-0.4,2.1h0L18,15.1l-1.7-1.3V12.2z M12.2,12.2
		c0.5-0.5,1-0.9,1.6-1.1c0,0,0,0,0,0l0.8,0.5l1.1,0.6v1.7l-1.1,0.8L14,15.1l-1.6-0.5L12,12.5c0,0,0,0,0,0
		C12.1,12.4,12.1,12.3,12.2,12.2z M11.3,18.7C11.3,18.7,11.3,18.6,11.3,18.7C11.3,18.6,11.3,18.7,11.3,18.7
		c-0.1-0.2-0.2-0.3-0.3-0.5c-0.2-0.5-0.3-1-0.4-1.6c0,0,0,0,0,0l1.6-1.5l1.6,0.5l0.6,1.7l0.1,0.3l-0.1,0.1L13.5,19L11.3,18.7z
		 M17.3,21.3C17.3,21.3,17.3,21.3,17.3,21.3c-0.4,0.1-0.9,0.2-1.3,0.2c0,0,0,0,0,0c-0.4,0-0.8-0.1-1.3-0.2c0,0,0,0,0,0l-0.3-0.8
		l-0.5-1.2l0.5-0.7l0.5-0.6h2.4l1,1.3L17.3,21.3z M21.4,16.9c0,0.1,0,0.2-0.1,0.3c0,0.1,0,0.1,0,0.2c-0.1,0.3-0.2,0.5-0.3,0.8
		c-0.1,0.2-0.1,0.3-0.2,0.5h0c0,0,0,0,0,0c0,0,0,0,0,0L18.6,19l-1-1.3l0.7-2h0l1.6-0.5l1.6,1.5c0,0,0,0,0,0h0
		C21.4,16.7,21.4,16.8,21.4,16.9z M21.9,14.8c-0.1-0.4-0.2-0.8-0.4-1.2c-0.3-0.7-0.7-1.3-1.2-1.8c-0.1-0.1-0.1-0.1-0.2-0.2
		c-0.1-0.1-0.2-0.2-0.4-0.3c-0.1-0.1-0.2-0.2-0.4-0.3C19.2,11,19.1,11,19,10.9c-0.1,0-0.1-0.1-0.2-0.1c-0.2-0.1-0.3-0.2-0.5-0.2
		c-0.1,0-0.2-0.1-0.3-0.1c-0.2-0.1-0.4-0.1-0.6-0.2c-0.1,0-0.2,0-0.3-0.1c-0.1,0-0.3,0-0.4-0.1c0,0,0,0,0,0c-0.1,0-0.1,0-0.2,0
		c0,0-0.1,0-0.2,0c-0.1,0-0.2,0-0.3,0h0c-3.3,0-5.9,2.7-5.9,6c0,2.7,1.8,5,4.3,5.7c0.5,0.1,1,0.2,1.6,0.2h0c1.1,0,2.2-0.3,3.1-0.9
		c0.4-0.2,0.7-0.5,1-0.8c1.1-1.1,1.8-2.6,1.8-4.3C22,15.7,22,15.2,21.9,14.8z M16.3,12.2l1.9-1.1c0,0,0,0,0,0
		c0.6,0.3,1.2,0.6,1.6,1.1h0c0.1,0.1,0.1,0.1,0.2,0.2c0,0,0,0,0,0l-0.4,2.1h0L18,15.1l-1.7-1.3V12.2z M12.2,12.2
		c0.5-0.5,1-0.9,1.6-1.1c0,0,0,0,0,0l0.8,0.5l1.1,0.6v1.7l-1.1,0.8L14,15.1l-1.6-0.5L12,12.5c0,0,0,0,0,0
		C12.1,12.4,12.1,12.3,12.2,12.2z M11.3,18.7C11.3,18.7,11.3,18.6,11.3,18.7C11.3,18.6,11.3,18.7,11.3,18.7
		c-0.1-0.2-0.2-0.3-0.3-0.5c-0.2-0.5-0.3-1-0.4-1.6c0,0,0,0,0,0l1.6-1.5l1.6,0.5l0.6,1.7l0.1,0.3l-0.1,0.1L13.5,19L11.3,18.7z
		 M17.3,21.3C17.3,21.3,17.3,21.3,17.3,21.3c-0.4,0.1-0.9,0.2-1.3,0.2c0,0,0,0,0,0c-0.4,0-0.8-0.1-1.3-0.2c0,0,0,0,0,0l-0.3-0.8
		l-0.5-1.2l0.5-0.7l0.5-0.6h2.4l1,1.3L17.3,21.3z M21.4,16.9c0,0.1,0,0.2-0.1,0.3c0,0.1,0,0.1,0,0.2c-0.1,0.3-0.2,0.5-0.3,0.8
		c-0.1,0.2-0.1,0.3-0.2,0.5h0c0,0,0,0,0,0c0,0,0,0,0,0L18.6,19l-1-1.3l0.7-2h0l1.6-0.5l1.6,1.5c0,0,0,0,0,0h0
		C21.4,16.7,21.4,16.8,21.4,16.9z M16,2.8C8.7,2.8,2.8,8.7,2.8,16c0,7.3,5.9,13.2,13.2,13.2c7.3,0,13.2-5.9,13.2-13.2
		C29.2,8.7,23.3,2.8,16,2.8z M14.3,6.3h1.2L16,5.1c0,0,0,0,0,0v0c0,0,0,0,0,0h0c0,0,0,0,0,0.1l0.4,1.2h1.2c0,0,0.1,0,0.1,0
		c0,0,0,0,0,0c0,0,0,0,0,0.1l-1,0.7l0.4,1.2c0,0,0,0.1,0,0.1c0,0,0,0,0,0h0c0,0,0,0,0,0c0,0,0,0,0,0c0,0,0,0,0,0l-1-0.7l0,0l-1,0.7
		c0,0,0,0-0.1,0c0,0,0,0,0-0.1l0.4-1.2L14.3,6.3C14.2,6.3,14.2,6.3,14.3,6.3z M21,20.3c-0.6,0.7-1.3,1.3-2.2,1.7
		c-0.8,0.4-1.8,0.6-2.8,0.6h0c0,0,0,0,0,0c-0.6,0-1.1-0.1-1.6-0.2c-2.8-0.7-4.8-3.3-4.8-6.3c0-3,2-5.5,4.7-6.2
		c0.5-0.1,1.1-0.2,1.6-0.2c0,0,0,0,0,0c0,0,0,0,0,0h0c0.4,0,0.7,0,1.1,0.1c0.1,0,0.2,0,0.3,0.1c0.2,0,0.3,0.1,0.5,0.1c0,0,0,0,0,0
		c0.1,0,0.2,0.1,0.3,0.1h0c0.1,0,0.2,0.1,0.3,0.1c0.1,0.1,0.3,0.1,0.4,0.2c0.1,0.1,0.3,0.1,0.4,0.2c0.4,0.3,0.9,0.6,1.2,1
		c0.4,0.4,0.7,0.8,1,1.3c0.4,0.7,0.7,1.4,0.8,2.2c0.1,0.3,0.1,0.7,0.1,1.1C22.6,17.7,22,19.1,21,20.3z M21.5,13.6
		c-0.3-0.7-0.7-1.3-1.2-1.8c-0.1-0.1-0.1-0.1-0.2-0.2c-0.1-0.1-0.2-0.2-0.4-0.3c-0.1-0.1-0.2-0.2-0.4-0.3C19.2,11,19.1,11,19,10.9
		c-0.1,0-0.1-0.1-0.2-0.1c-0.2-0.1-0.3-0.2-0.5-0.2c-0.1,0-0.2-0.1-0.3-0.1c-0.2-0.1-0.4-0.1-0.6-0.2c-0.1,0-0.2,0-0.3-0.1
		c-0.1,0-0.3,0-0.4-0.1c0,0,0,0,0,0c-0.1,0-0.1,0-0.2,0c0,0-0.1,0-0.2,0c-0.1,0-0.2,0-0.3,0h0c-3.3,0-5.9,2.7-5.9,6
		c0,2.7,1.8,5,4.3,5.7c0.5,0.1,1,0.2,1.6,0.2h0c1.1,0,2.2-0.3,3.1-0.9c0.4-0.2,0.7-0.5,1-0.8c1.1-1.1,1.8-2.6,1.8-4.3
		c0-0.4,0-0.8-0.1-1.2C21.8,14.4,21.6,14,21.5,13.6z M16.3,12.2l1.9-1.1c0,0,0,0,0,0c0.6,0.3,1.2,0.6,1.6,1.1h0
		c0.1,0.1,0.1,0.1,0.2,0.2c0,0,0,0,0,0l-0.4,2.1h0L18,15.1l-1.7-1.3V12.2z M12.2,12.2c0.5-0.5,1-0.9,1.6-1.1c0,0,0,0,0,0l0.8,0.5
		l1.1,0.6v1.7l-1.1,0.8L14,15.1l-1.6-0.5L12,12.5c0,0,0,0,0,0C12.1,12.4,12.1,12.3,12.2,12.2z M11.3,18.7
		C11.3,18.7,11.3,18.6,11.3,18.7C11.3,18.6,11.3,18.7,11.3,18.7c-0.1-0.2-0.2-0.3-0.3-0.5c-0.2-0.5-0.3-1-0.4-1.6c0,0,0,0,0,0
		l1.6-1.5l1.6,0.5l0.6,1.7l0.1,0.3l-0.1,0.1L13.5,19L11.3,18.7z M17.3,21.3C17.3,21.3,17.3,21.3,17.3,21.3c-0.4,0.1-0.9,0.2-1.3,0.2
		c0,0,0,0,0,0c-0.4,0-0.8-0.1-1.3-0.2c0,0,0,0,0,0l-0.3-0.8l-0.5-1.2l0.5-0.7l0.5-0.6h2.4l1,1.3L17.3,21.3z M21.4,16.9
		c0,0.1,0,0.2-0.1,0.3c0,0.1,0,0.1,0,0.2c-0.1,0.3-0.2,0.5-0.3,0.8c-0.1,0.2-0.1,0.3-0.2,0.5h0c0,0,0,0,0,0c0,0,0,0,0,0L18.6,19
		l-1-1.3l0.7-2h0l1.6-0.5l1.6,1.5c0,0,0,0,0,0h0C21.4,16.7,21.4,16.8,21.4,16.9z M16,9.6L16,9.6L16,9.6C16,9.6,16,9.6,16,9.6
		C16,9.6,16,9.6,16,9.6L16,9.6z M21.9,14.8c-0.1-0.4-0.2-0.8-0.4-1.2c-0.3-0.7-0.7-1.3-1.2-1.8c-0.1-0.1-0.1-0.1-0.2-0.2
		c-0.1-0.1-0.2-0.2-0.4-0.3c-0.1-0.1-0.2-0.2-0.4-0.3C19.2,11,19.1,11,19,10.9c-0.1,0-0.1-0.1-0.2-0.1c-0.2-0.1-0.3-0.2-0.5-0.2
		c-0.1,0-0.2-0.1-0.3-0.1c-0.2-0.1-0.4-0.1-0.6-0.2c-0.1,0-0.2,0-0.3-0.1c-0.1,0-0.3,0-0.4-0.1c0,0,0,0,0,0c-0.1,0-0.1,0-0.2,0
		c0,0-0.1,0-0.2,0c-0.1,0-0.2,0-0.3,0h0c-3.3,0-5.9,2.7-5.9,6c0,2.7,1.8,5,4.3,5.7c0.5,0.1,1,0.2,1.6,0.2h0c1.1,0,2.2-0.3,3.1-0.9
		c0.4-0.2,0.7-0.5,1-0.8c1.1-1.1,1.8-2.6,1.8-4.3C22,15.7,22,15.2,21.9,14.8z M16.3,12.2l1.9-1.1c0,0,0,0,0,0
		c0.6,0.3,1.2,0.6,1.6,1.1h0c0.1,0.1,0.1,0.1,0.2,0.2c0,0,0,0,0,0l-0.4,2.1h0L18,15.1l-1.7-1.3V12.2z M12.2,12.2
		c0.5-0.5,1-0.9,1.6-1.1c0,0,0,0,0,0l0.8,0.5l1.1,0.6v1.7l-1.1,0.8L14,15.1l-1.6-0.5L12,12.5c0,0,0,0,0,0
		C12.1,12.4,12.1,12.3,12.2,12.2z M11.3,18.7C11.3,18.7,11.3,18.6,11.3,18.7C11.3,18.6,11.3,18.7,11.3,18.7
		c-0.1-0.2-0.2-0.3-0.3-0.5c-0.2-0.5-0.3-1-0.4-1.6c0,0,0,0,0,0l1.6-1.5l1.6,0.5l0.6,1.7l0.1,0.3l-0.1,0.1L13.5,19L11.3,18.7z
		 M17.3,21.3C17.3,21.3,17.3,21.3,17.3,21.3c-0.4,0.1-0.9,0.2-1.3,0.2c0,0,0,0,0,0c-0.4,0-0.8-0.1-1.3-0.2c0,0,0,0,0,0l-0.3-0.8
		l-0.5-1.2l0.5-0.7l0.5-0.6h2.4l1,1.3L17.3,21.3z M21.4,16.9c0,0.1,0,0.2-0.1,0.3c0,0.1,0,0.1,0,0.2c-0.1,0.3-0.2,0.5-0.3,0.8
		c-0.1,0.2-0.1,0.3-0.2,0.5h0c0,0,0,0,0,0c0,0,0,0,0,0L18.6,19l-1-1.3l0.7-2h0l1.6-0.5l1.6,1.5c0,0,0,0,0,0h0
		C21.4,16.7,21.4,16.8,21.4,16.9z M21.9,14.8c-0.1-0.4-0.2-0.8-0.4-1.2c-0.3-0.7-0.7-1.3-1.2-1.8c-0.1-0.1-0.1-0.1-0.2-0.2
		c-0.1-0.1-0.2-0.2-0.4-0.3c-0.1-0.1-0.2-0.2-0.4-0.3C19.2,11,19.1,11,19,10.9c-0.1,0-0.1-0.1-0.2-0.1c-0.2-0.1-0.3-0.2-0.5-0.2
		c-0.1,0-0.2-0.1-0.3-0.1c-0.2-0.1-0.4-0.1-0.6-0.2c-0.1,0-0.2,0-0.3-0.1c-0.1,0-0.3,0-0.4-0.1c0,0,0,0,0,0c-0.1,0-0.1,0-0.2,0
		c0,0-0.1,0-0.2,0c-0.1,0-0.2,0-0.3,0h0c-3.3,0-5.9,2.7-5.9,6c0,2.7,1.8,5,4.3,5.7c0.5,0.1,1,0.2,1.6,0.2h0c1.1,0,2.2-0.3,3.1-0.9
		c0.4-0.2,0.7-0.5,1-0.8c1.1-1.1,1.8-2.6,1.8-4.3C22,15.7,22,15.2,21.9,14.8z M16.3,12.2l1.9-1.1c0,0,0,0,0,0
		c0.6,0.3,1.2,0.6,1.6,1.1h0c0.1,0.1,0.1,0.1,0.2,0.2c0,0,0,0,0,0l-0.4,2.1h0L18,15.1l-1.7-1.3V12.2z M12.2,12.2
		c0.5-0.5,1-0.9,1.6-1.1c0,0,0,0,0,0l0.8,0.5l1.1,0.6v1.7l-1.1,0.8L14,15.1l-1.6-0.5L12,12.5c0,0,0,0,0,0
		C12.1,12.4,12.1,12.3,12.2,12.2z M11.3,18.7C11.3,18.7,11.3,18.6,11.3,18.7C11.3,18.6,11.3,18.7,11.3,18.7
		c-0.1-0.2-0.2-0.3-0.3-0.5c-0.2-0.5-0.3-1-0.4-1.6c0,0,0,0,0,0l1.6-1.5l1.6,0.5l0.6,1.7l0.1,0.3l-0.1,0.1L13.5,19L11.3,18.7z
		 M17.3,21.3C17.3,21.3,17.3,21.3,17.3,21.3c-0.4,0.1-0.9,0.2-1.3,0.2c0,0,0,0,0,0c-0.4,0-0.8-0.1-1.3-0.2c0,0,0,0,0,0l-0.3-0.8
		l-0.5-1.2l0.5-0.7l0.5-0.6h2.4l1,1.3L17.3,21.3z M21.4,16.9c0,0.1,0,0.2-0.1,0.3c0,0.1,0,0.1,0,0.2c-0.1,0.3-0.2,0.5-0.3,0.8
		c-0.1,0.2-0.1,0.3-0.2,0.5h0c0,0,0,0,0,0c0,0,0,0,0,0L18.6,19l-1-1.3l0.7-2h0l1.6-0.5l1.6,1.5c0,0,0,0,0,0h0
		C21.4,16.7,21.4,16.8,21.4,16.9z M21.9,14.8c-0.1-0.4-0.2-0.8-0.4-1.2c-0.3-0.7-0.7-1.3-1.2-1.8c-0.1-0.1-0.1-0.1-0.2-0.2
		c-0.1-0.1-0.2-0.2-0.4-0.3c-0.1-0.1-0.2-0.2-0.4-0.3C19.2,11,19.1,11,19,10.9c-0.1,0-0.1-0.1-0.2-0.1c-0.2-0.1-0.3-0.2-0.5-0.2
		c-0.1,0-0.2-0.1-0.3-0.1c-0.2-0.1-0.4-0.1-0.6-0.2c-0.1,0-0.2,0-0.3-0.1c-0.1,0-0.3,0-0.4-0.1c0,0,0,0,0,0c-0.1,0-0.1,0-0.2,0
		c0,0-0.1,0-0.2,0c-0.1,0-0.2,0-0.3,0h0c-3.3,0-5.9,2.7-5.9,6c0,2.7,1.8,5,4.3,5.7c0.5,0.1,1,0.2,1.6,0.2h0c1.1,0,2.2-0.3,3.1-0.9
		c0.4-0.2,0.7-0.5,1-0.8c1.1-1.1,1.8-2.6,1.8-4.3C22,15.7,22,15.2,21.9,14.8z M16.3,12.2l1.9-1.1c0,0,0,0,0,0
		c0.6,0.3,1.2,0.6,1.6,1.1h0c0.1,0.1,0.1,0.1,0.2,0.2c0,0,0,0,0,0l-0.4,2.1h0L18,15.1l-1.7-1.3V12.2z M12.2,12.2
		c0.5-0.5,1-0.9,1.6-1.1c0,0,0,0,0,0l0.8,0.5l1.1,0.6v1.7l-1.1,0.8L14,15.1l-1.6-0.5L12,12.5c0,0,0,0,0,0
		C12.1,12.4,12.1,12.3,12.2,12.2z M11.3,18.7C11.3,18.7,11.3,18.6,11.3,18.7C11.3,18.6,11.3,18.7,11.3,18.7
		c-0.1-0.2-0.2-0.3-0.3-0.5c-0.2-0.5-0.3-1-0.4-1.6c0,0,0,0,0,0l1.6-1.5l1.6,0.5l0.6,1.7l0.1,0.3l-0.1,0.1L13.5,19L11.3,18.7z
		 M17.3,21.3C17.3,21.3,17.3,21.3,17.3,21.3c-0.4,0.1-0.9,0.2-1.3,0.2c0,0,0,0,0,0c-0.4,0-0.8-0.1-1.3-0.2c0,0,0,0,0,0l-0.3-0.8
		l-0.5-1.2l0.5-0.7l0.5-0.6h2.4l1,1.3L17.3,21.3z M21.4,16.9c0,0.1,0,0.2-0.1,0.3c0,0.1,0,0.1,0,0.2c-0.1,0.3-0.2,0.5-0.3,0.8
		c-0.1,0.2-0.1,0.3-0.2,0.5h0c0,0,0,0,0,0c0,0,0,0,0,0L18.6,19l-1-1.3l0.7-2h0l1.6-0.5l1.6,1.5c0,0,0,0,0,0h0
		C21.4,16.7,21.4,16.8,21.4,16.9z M21.9,14.8c-0.1-0.4-0.2-0.8-0.4-1.2c-0.3-0.7-0.7-1.3-1.2-1.8c-0.1-0.1-0.1-0.1-0.2-0.2
		c-0.1-0.1-0.2-0.2-0.4-0.3c-0.1-0.1-0.2-0.2-0.4-0.3C19.2,11,19.1,11,19,10.9c-0.1,0-0.1-0.1-0.2-0.1c-0.2-0.1-0.3-0.2-0.5-0.2
		c-0.1,0-0.2-0.1-0.3-0.1c-0.2-0.1-0.4-0.1-0.6-0.2c-0.1,0-0.2,0-0.3-0.1c-0.1,0-0.3,0-0.4-0.1c0,0,0,0,0,0c-0.1,0-0.1,0-0.2,0
		c0,0-0.1,0-0.2,0c-0.1,0-0.2,0-0.3,0h0c-3.3,0-5.9,2.7-5.9,6c0,2.7,1.8,5,4.3,5.7c0.5,0.1,1,0.2,1.6,0.2h0c1.1,0,2.2-0.3,3.1-0.9
		c0.4-0.2,0.7-0.5,1-0.8c1.1-1.1,1.8-2.6,1.8-4.3C22,15.7,22,15.2,21.9,14.8z M16.3,12.2l1.9-1.1c0,0,0,0,0,0
		c0.6,0.3,1.2,0.6,1.6,1.1h0c0.1,0.1,0.1,0.1,0.2,0.2c0,0,0,0,0,0l-0.4,2.1h0L18,15.1l-1.7-1.3V12.2z M12.2,12.2
		c0.5-0.5,1-0.9,1.6-1.1c0,0,0,0,0,0l0.8,0.5l1.1,0.6v1.7l-1.1,0.8L14,15.1l-1.6-0.5L12,12.5c0,0,0,0,0,0
		C12.1,12.4,12.1,12.3,12.2,12.2z M11.3,18.7C11.3,18.7,11.3,18.6,11.3,18.7C11.3,18.6,11.3,18.7,11.3,18.7
		c-0.1-0.2-0.2-0.3-0.3-0.5c-0.2-0.5-0.3-1-0.4-1.6c0,0,0,0,0,0l1.6-1.5l1.6,0.5l0.6,1.7l0.1,0.3l-0.1,0.1L13.5,19L11.3,18.7z
		 M17.3,21.3C17.3,21.3,17.3,21.3,17.3,21.3c-0.4,0.1-0.9,0.2-1.3,0.2c0,0,0,0,0,0c-0.4,0-0.8-0.1-1.3-0.2c0,0,0,0,0,0l-0.3-0.8
		l-0.5-1.2l0.5-0.7l0.5-0.6h2.4l1,1.3L17.3,21.3z M21.4,16.9c0,0.1,0,0.2-0.1,0.3c0,0.1,0,0.1,0,0.2c-0.1,0.3-0.2,0.5-0.3,0.8
		c-0.1,0.2-0.1,0.3-0.2,0.5h0c0,0,0,0,0,0c0,0,0,0,0,0L18.6,19l-1-1.3l0.7-2h0l1.6-0.5l1.6,1.5c0,0,0,0,0,0h0
		C21.4,16.7,21.4,16.8,21.4,16.9z M21.9,14.8c-0.1-0.4-0.2-0.8-0.4-1.2c-0.3-0.7-0.7-1.3-1.2-1.8c-0.1-0.1-0.1-0.1-0.2-0.2
		c-0.1-0.1-0.2-0.2-0.4-0.3c-0.1-0.1-0.2-0.2-0.4-0.3C19.2,11,19.1,11,19,10.9c-0.1,0-0.1-0.1-0.2-0.1c-0.2-0.1-0.3-0.2-0.5-0.2
		c-0.1,0-0.2-0.1-0.3-0.1c-0.2-0.1-0.4-0.1-0.6-0.2c-0.1,0-0.2,0-0.3-0.1c-0.1,0-0.3,0-0.4-0.1c0,0,0,0,0,0c-0.1,0-0.1,0-0.2,0
		c0,0-0.1,0-0.2,0c-0.1,0-0.2,0-0.3,0h0c-3.3,0-5.9,2.7-5.9,6c0,2.7,1.8,5,4.3,5.7c0.5,0.1,1,0.2,1.6,0.2h0c1.1,0,2.2-0.3,3.1-0.9
		c0.4-0.2,0.7-0.5,1-0.8c1.1-1.1,1.8-2.6,1.8-4.3C22,15.7,22,15.2,21.9,14.8z M16.3,12.2l1.9-1.1c0,0,0,0,0,0
		c0.6,0.3,1.2,0.6,1.6,1.1h0c0.1,0.1,0.1,0.1,0.2,0.2c0,0,0,0,0,0l-0.4,2.1h0L18,15.1l-1.7-1.3V12.2z M12.2,12.2
		c0.5-0.5,1-0.9,1.6-1.1c0,0,0,0,0,0l0.8,0.5l1.1,0.6v1.7l-1.1,0.8L14,15.1l-1.6-0.5L12,12.5c0,0,0,0,0,0
		C12.1,12.4,12.1,12.3,12.2,12.2z M11.3,18.7C11.3,18.7,11.3,18.6,11.3,18.7C11.3,18.6,11.3,18.7,11.3,18.7
		c-0.1-0.2-0.2-0.3-0.3-0.5c-0.2-0.5-0.3-1-0.4-1.6c0,0,0,0,0,0l1.6-1.5l1.6,0.5l0.6,1.7l0.1,0.3l-0.1,0.1L13.5,19L11.3,18.7z
		 M17.3,21.3C17.3,21.3,17.3,21.3,17.3,21.3c-0.4,0.1-0.9,0.2-1.3,0.2c0,0,0,0,0,0c-0.4,0-0.8-0.1-1.3-0.2c0,0,0,0,0,0l-0.3-0.8
		l-0.5-1.2l0.5-0.7l0.5-0.6h2.4l1,1.3L17.3,21.3z M21.4,16.9c0,0.1,0,0.2-0.1,0.3c0,0.1,0,0.1,0,0.2c-0.1,0.3-0.2,0.5-0.3,0.8
		c-0.1,0.2-0.1,0.3-0.2,0.5h0c0,0,0,0,0,0c0,0,0,0,0,0L18.6,19l-1-1.3l0.7-2h0l1.6-0.5l1.6,1.5c0,0,0,0,0,0h0
		C21.4,16.7,21.4,16.8,21.4,16.9z M21.9,14.8c-0.1-0.4-0.2-0.8-0.4-1.2c-0.3-0.7-0.7-1.3-1.2-1.8c-0.1-0.1-0.1-0.1-0.2-0.2
		c-0.1-0.1-0.2-0.2-0.4-0.3c-0.1-0.1-0.2-0.2-0.4-0.3C19.2,11,19.1,11,19,10.9c-0.1,0-0.1-0.1-0.2-0.1c-0.2-0.1-0.3-0.2-0.5-0.2
		c-0.1,0-0.2-0.1-0.3-0.1c-0.2-0.1-0.4-0.1-0.6-0.2c-0.1,0-0.2,0-0.3-0.1c-0.1,0-0.3,0-0.4-0.1c0,0,0,0,0,0c-0.1,0-0.1,0-0.2,0
		c0,0-0.1,0-0.2,0c-0.1,0-0.2,0-0.3,0h0c-3.3,0-5.9,2.7-5.9,6c0,2.7,1.8,5,4.3,5.7c0.5,0.1,1,0.2,1.6,0.2h0c1.1,0,2.2-0.3,3.1-0.9
		c0.4-0.2,0.7-0.5,1-0.8c1.1-1.1,1.8-2.6,1.8-4.3C22,15.7,22,15.2,21.9,14.8z M16.3,12.2l1.9-1.1c0,0,0,0,0,0
		c0.6,0.3,1.2,0.6,1.6,1.1h0c0.1,0.1,0.1,0.1,0.2,0.2c0,0,0,0,0,0l-0.4,2.1h0L18,15.1l-1.7-1.3V12.2z M12.2,12.2
		c0.5-0.5,1-0.9,1.6-1.1c0,0,0,0,0,0l0.8,0.5l1.1,0.6v1.7l-1.1,0.8L14,15.1l-1.6-0.5L12,12.5c0,0,0,0,0,0
		C12.1,12.4,12.1,12.3,12.2,12.2z M11.3,18.7C11.3,18.7,11.3,18.6,11.3,18.7C11.3,18.6,11.3,18.7,11.3,18.7
		c-0.1-0.2-0.2-0.3-0.3-0.5c-0.2-0.5-0.3-1-0.4-1.6c0,0,0,0,0,0l1.6-1.5l1.6,0.5l0.6,1.7l0.1,0.3l-0.1,0.1L13.5,19L11.3,18.7z
		 M17.3,21.3C17.3,21.3,17.3,21.3,17.3,21.3c-0.4,0.1-0.9,0.2-1.3,0.2c0,0,0,0,0,0c-0.4,0-0.8-0.1-1.3-0.2c0,0,0,0,0,0l-0.3-0.8
		l-0.5-1.2l0.5-0.7l0.5-0.6h2.4l1,1.3L17.3,21.3z M21.4,16.9c0,0.1,0,0.2-0.1,0.3c0,0.1,0,0.1,0,0.2c-0.1,0.3-0.2,0.5-0.3,0.8
		c-0.1,0.2-0.1,0.3-0.2,0.5h0c0,0,0,0,0,0c0,0,0,0,0,0L18.6,19l-1-1.3l0.7-2h0l1.6-0.5l1.6,1.5c0,0,0,0,0,0h0
		C21.4,16.7,21.4,16.8,21.4,16.9z M21.9,14.8c-0.1-0.4-0.2-0.8-0.4-1.2c-0.3-0.7-0.7-1.3-1.2-1.8c-0.1-0.1-0.1-0.1-0.2-0.2
		c-0.1-0.1-0.2-0.2-0.4-0.3c-0.1-0.1-0.2-0.2-0.4-0.3C19.2,11,19.1,11,19,10.9c-0.1,0-0.1-0.1-0.2-0.1c-0.2-0.1-0.3-0.2-0.5-0.2
		c-0.1,0-0.2-0.1-0.3-0.1c-0.2-0.1-0.4-0.1-0.6-0.2c-0.1,0-0.2,0-0.3-0.1c-0.1,0-0.3,0-0.4-0.1c0,0,0,0,0,0c-0.1,0-0.1,0-0.2,0
		c0,0-0.1,0-0.2,0c-0.1,0-0.2,0-0.3,0h0c-3.3,0-5.9,2.7-5.9,6c0,2.7,1.8,5,4.3,5.7c0.5,0.1,1,0.2,1.6,0.2h0c1.1,0,2.2-0.3,3.1-0.9
		c0.4-0.2,0.7-0.5,1-0.8c1.1-1.1,1.8-2.6,1.8-4.3C22,15.7,22,15.2,21.9,14.8z M16.3,12.2l1.9-1.1c0,0,0,0,0,0
		c0.6,0.3,1.2,0.6,1.6,1.1h0c0.1,0.1,0.1,0.1,0.2,0.2c0,0,0,0,0,0l-0.4,2.1h0L18,15.1l-1.7-1.3V12.2z M12.2,12.2
		c0.5-0.5,1-0.9,1.6-1.1c0,0,0,0,0,0l0.8,0.5l1.1,0.6v1.7l-1.1,0.8L14,15.1l-1.6-0.5L12,12.5c0,0,0,0,0,0
		C12.1,12.4,12.1,12.3,12.2,12.2z M11.3,18.7C11.3,18.7,11.3,18.6,11.3,18.7C11.3,18.6,11.3,18.7,11.3,18.7
		c-0.1-0.2-0.2-0.3-0.3-0.5c-0.2-0.5-0.3-1-0.4-1.6c0,0,0,0,0,0l1.6-1.5l1.6,0.5l0.6,1.7l0.1,0.3l-0.1,0.1L13.5,19L11.3,18.7z
		 M17.3,21.3C17.3,21.3,17.3,21.3,17.3,21.3c-0.4,0.1-0.9,0.2-1.3,0.2c0,0,0,0,0,0c-0.4,0-0.8-0.1-1.3-0.2c0,0,0,0,0,0l-0.3-0.8
		l-0.5-1.2l0.5-0.7l0.5-0.6h2.4l1,1.3L17.3,21.3z M21.4,16.9c0,0.1,0,0.2-0.1,0.3c0,0.1,0,0.1,0,0.2c-0.1,0.3-0.2,0.5-0.3,0.8
		c-0.1,0.2-0.1,0.3-0.2,0.5h0c0,0,0,0,0,0c0,0,0,0,0,0L18.6,19l-1-1.3l0.7-2h0l1.6-0.5l1.6,1.5c0,0,0,0,0,0h0
		C21.4,16.7,21.4,16.8,21.4,16.9z M21.9,14.8c-0.1-0.4-0.2-0.8-0.4-1.2c-0.3-0.7-0.7-1.3-1.2-1.8c-0.1-0.1-0.1-0.1-0.2-0.2
		c-0.1-0.1-0.2-0.2-0.4-0.3c-0.1-0.1-0.2-0.2-0.4-0.3C19.2,11,19.1,11,19,10.9c-0.1,0-0.1-0.1-0.2-0.1c-0.2-0.1-0.3-0.2-0.5-0.2
		c-0.1,0-0.2-0.1-0.3-0.1c-0.2-0.1-0.4-0.1-0.6-0.2c-0.1,0-0.2,0-0.3-0.1c-0.1,0-0.3,0-0.4-0.1c0,0,0,0,0,0c-0.1,0-0.1,0-0.2,0
		c0,0-0.1,0-0.2,0c-0.1,0-0.2,0-0.3,0h0c-3.3,0-5.9,2.7-5.9,6c0,2.7,1.8,5,4.3,5.7c0.5,0.1,1,0.2,1.6,0.2h0c1.1,0,2.2-0.3,3.1-0.9
		c0.4-0.2,0.7-0.5,1-0.8c1.1-1.1,1.8-2.6,1.8-4.3C22,15.7,22,15.2,21.9,14.8z M16.3,12.2l1.9-1.1c0,0,0,0,0,0
		c0.6,0.3,1.2,0.6,1.6,1.1h0c0.1,0.1,0.1,0.1,0.2,0.2c0,0,0,0,0,0l-0.4,2.1h0L18,15.1l-1.7-1.3V12.2z M12.2,12.2
		c0.5-0.5,1-0.9,1.6-1.1c0,0,0,0,0,0l0.8,0.5l1.1,0.6v1.7l-1.1,0.8L14,15.1l-1.6-0.5L12,12.5c0,0,0,0,0,0
		C12.1,12.4,12.1,12.3,12.2,12.2z M11.3,18.7C11.3,18.7,11.3,18.6,11.3,18.7C11.3,18.6,11.3,18.7,11.3,18.7
		c-0.1-0.2-0.2-0.3-0.3-0.5c-0.2-0.5-0.3-1-0.4-1.6c0,0,0,0,0,0l1.6-1.5l1.6,0.5l0.6,1.7l0.1,0.3l-0.1,0.1L13.5,19L11.3,18.7z
		 M17.3,21.3C17.3,21.3,17.3,21.3,17.3,21.3c-0.4,0.1-0.9,0.2-1.3,0.2c0,0,0,0,0,0c-0.4,0-0.8-0.1-1.3-0.2c0,0,0,0,0,0l-0.3-0.8
		l-0.5-1.2l0.5-0.7l0.5-0.6h2.4l1,1.3L17.3,21.3z M21.4,16.9c0,0.1,0,0.2-0.1,0.3c0,0.1,0,0.1,0,0.2c-0.1,0.3-0.2,0.5-0.3,0.8
		c-0.1,0.2-0.1,0.3-0.2,0.5h0c0,0,0,0,0,0c0,0,0,0,0,0L18.6,19l-1-1.3l0.7-2h0l1.6-0.5l1.6,1.5c0,0,0,0,0,0h0
		C21.4,16.7,21.4,16.8,21.4,16.9z"/>
	<path opacity="0.5" fill="#6D6E70" d="M16,0v1.6c7.9,0,14.4,6.5,14.4,14.4c0,7.9-6.5,14.4-14.4,14.4V32c8.8,0,16-7.2,16-16
		S24.8,0,16,0z M16,2.8V5h0c0,0,0,0,0,0.1l0.4,1.2h1.2c0,0,0.1,0,0.1,0c0,0,0,0,0,0c0,0,0,0,0,0.1l-1,0.7l0.4,1.2c0,0,0,0.1,0,0.1
		c0,0,0,0,0,0h0c0,0,0,0,0,0c0,0,0,0,0,0c0,0,0,0,0,0l-1-0.7l0,0v2c0,0,0,0,0,0h0c0.4,0,0.7,0,1.1,0.1c0.1,0,0.2,0,0.3,0.1
		c0.2,0,0.3,0.1,0.5,0.1c0,0,0,0,0,0c0.1,0,0.2,0.1,0.3,0.1h0c0.1,0,0.2,0.1,0.3,0.1c0.1,0.1,0.3,0.1,0.4,0.2
		c0.1,0.1,0.3,0.1,0.4,0.2c0.4,0.3,0.9,0.6,1.2,1c0.4,0.4,0.7,0.8,1,1.3c0.4,0.7,0.7,1.4,0.8,2.2c0.1,0.3,0.1,0.7,0.1,1.1
		c0,1.6-0.6,3-1.5,4.2c-0.6,0.7-1.3,1.3-2.2,1.7c-0.8,0.4-1.8,0.6-2.8,0.6h0c0,0,0,0,0,0v6.7c7.3,0,13.2-5.9,13.2-13.2
		C29.2,8.7,23.3,2.8,16,2.8z M19.2,21.1c0.4-0.2,0.7-0.5,1-0.8c1.1-1.1,1.8-2.6,1.8-4.3c0-0.4,0-0.8-0.1-1.2
		c-0.1-0.4-0.2-0.8-0.4-1.2c-0.3-0.7-0.7-1.3-1.2-1.8c-0.1-0.1-0.1-0.1-0.2-0.2c-0.1-0.1-0.2-0.2-0.4-0.3c-0.1-0.1-0.2-0.2-0.4-0.3
		C19.2,11,19.1,11,19,10.9c-0.1,0-0.1-0.1-0.2-0.1c-0.2-0.1-0.3-0.2-0.5-0.2c-0.1,0-0.2-0.1-0.3-0.1c-0.2-0.1-0.4-0.1-0.6-0.2
		c-0.1,0-0.2,0-0.3-0.1c-0.1,0-0.3,0-0.4-0.1c0,0,0,0,0,0c-0.1,0-0.1,0-0.2,0c0,0-0.1,0-0.2,0c-0.1,0-0.2,0-0.3,0h0v7.9h1.2l1,1.3
		l-0.8,2c0,0,0,0,0,0c-0.4,0.1-0.9,0.2-1.3,0.2c0,0,0,0,0,0V22h0C17.2,22,18.2,21.7,19.2,21.1z M16.3,13.9v-1.7l1.9-1.1c0,0,0,0,0,0
		c0.6,0.3,1.2,0.6,1.6,1.1h0c0.1,0.1,0.1,0.1,0.2,0.2c0,0,0,0,0,0l-0.4,2.1h0L18,15.1L16.3,13.9z M17.6,17.7l0.7-2h0l1.6-0.5
		l1.6,1.5c0,0,0,0,0,0h0c0,0.1,0,0.2,0,0.3c0,0.1,0,0.2-0.1,0.3c0,0.1,0,0.1,0,0.2c-0.1,0.3-0.2,0.5-0.3,0.8
		c-0.1,0.2-0.1,0.3-0.2,0.5h0c0,0,0,0,0,0c0,0,0,0,0,0L18.6,19L17.6,17.7z"/>
</g>
</svg>
